{
  "ids": {
    "Game": 2,
    "Score": 2
  },
  "models": {
    "Game": {
      "1": "{\"name\":\"Color Twister\",\"desc\":\"Select the color the word is describing and not the color of the word!\",\"id\":1}"
    },
    "Score": {
      "1": "{\"username\":\"CEO\",\"points\":33,\"ts\":\"2021-07-26T06:33:20.116Z\",\"gameId\":1,\"id\":1}"
    }
  }
}